mp4/top.vcd
$date
	Fri Nov 28 03:40:34 2025
$end
$version
	Icarus Verilog
$end
$timescale
	10ps
$end
$scope module top $end
$var wire 1 ! clk $end
$var wire 1 " isZero $end
$var wire 32 # instr [31:0] $end
$var wire 32 $ imm [31:0] $end
$var wire 32 % data [31:0] $end
$var wire 32 & aluRes [31:0] $end
$var wire 4 ' aluControl [3:0] $end
$var wire 2 ( ResultSrc [1:0] $end
$var wire 1 ) RegWrite $end
$var wire 32 * RD2 [31:0] $end
$var wire 32 + RD1 [31:0] $end
$var wire 1 , PCWrite $end
$var wire 1 - MemWrite $end
$var wire 1 . IRWrite $end
$var wire 1 / AdrSrc $end
$var wire 32 0 Adr [31:0] $end
$var wire 2 1 ALUSrcB [1:0] $end
$var wire 2 2 ALUSrcA [1:0] $end
$var wire 5 3 A3 [4:0] $end
$var wire 5 4 A2 [4:0] $end
$var wire 5 5 A1 [4:0] $end
$var reg 32 6 A [31:0] $end
$var reg 32 7 B [31:0] $end
$var reg 1 8 LED $end
$var reg 32 9 aluIn1 [31:0] $end
$var reg 32 : aluIn2 [31:0] $end
$var reg 32 ; aluOut [31:0] $end
$var reg 32 < oldpc [31:0] $end
$var reg 32 = pc [31:0] $end
$var reg 32 > res [31:0] $end
$scope module alu $end
$var wire 32 ? aluIn1 [31:0] $end
$var wire 32 @ aluIn2 [31:0] $end
$var wire 1 " isZero $end
$var wire 4 A aluControl [3:0] $end
$var reg 32 B aluRes [31:0] $end
$upscope $end
$scope module controller $end
$var wire 1 , PCWrite $end
$var wire 1 " aluIsZero $end
$var wire 1 ! clk $end
$var wire 3 C funct3 [2:0] $end
$var wire 1 D funct7_5 $end
$var wire 7 E opcode [6:0] $end
$var wire 1 F BranchCondition $end
$var parameter 5 G ALUWB $end
$var parameter 5 H AUIPC $end
$var parameter 5 I BEQ $end
$var parameter 5 J BGE $end
$var parameter 5 K BGEU $end
$var parameter 5 L BLT $end
$var parameter 5 M BLTU $end
$var parameter 5 N BNE $end
$var parameter 5 O DECODE $end
$var parameter 5 P EXECUTEI $end
$var parameter 5 Q EXECUTER $end
$var parameter 5 R FETCH $end
$var parameter 5 S JAL $end
$var parameter 5 T JALR $end
$var parameter 5 U LUI $end
$var parameter 5 V MEMADR $end
$var parameter 5 W MEMREAD $end
$var parameter 5 X MEMWB $end
$var parameter 5 Y MEMWRITE $end
$var reg 2 Z ALUOp [1:0] $end
$var reg 2 [ ALUSrcA [1:0] $end
$var reg 2 \ ALUSrcB [1:0] $end
$var reg 1 / AdrSrc $end
$var reg 1 ] Branch $end
$var reg 1 ^ BranchSel $end
$var reg 1 . IRWrite $end
$var reg 1 - MemWrite $end
$var reg 1 _ PCUpdate $end
$var reg 1 ) RegWrite $end
$var reg 2 ` ResultSrc [1:0] $end
$var reg 4 a aluControl [3:0] $end
$var reg 5 b next_state [4:0] $end
$var reg 5 c state [4:0] $end
$upscope $end
$scope module immgen $end
$var wire 1 d isBtype $end
$var wire 1 e isItype $end
$var wire 1 f isJtype $end
$var wire 1 g isStype $end
$var wire 1 h isUtype $end
$var wire 1 i isStore $end
$var wire 1 j isLoad $end
$var wire 1 k isLUI $end
$var wire 1 l isJALR $end
$var wire 1 m isJAL $end
$var wire 1 n isBranch $end
$var wire 1 o isAUIPC $end
$var wire 1 p isALUimm $end
$var wire 32 q instr [31:0] $end
$var wire 32 r Uimm [31:0] $end
$var wire 32 s Simm [31:0] $end
$var wire 32 t Jimm [31:0] $end
$var wire 32 u Iimm [31:0] $end
$var wire 32 v Bimm [31:0] $end
$var reg 32 w imm [31:0] $end
$upscope $end
$scope module memory $end
$var wire 1 . IRWrite $end
$var wire 1 ! clk $end
$var wire 32 x dmem_address [31:0] $end
$var wire 32 y dmem_data_in [31:0] $end
$var wire 1 - dmem_wren $end
$var wire 1 z dmem_write_enable $end
$var wire 3 { funct3 [2:0] $end
$var wire 32 | imem_address [31:0] $end
$var wire 1 } reset $end
$var wire 1 ~ sign_bit3 $end
$var wire 1 !" sign_bit2 $end
$var wire 1 "" sign_bit1 $end
$var wire 1 #" sign_bit0 $end
$var wire 1 $" red $end
$var wire 1 %" led $end
$var wire 1 &" is_millis $end
$var wire 1 '" is_micros $end
$var wire 1 (" is_leds $end
$var wire 1 )" is_dmem $end
$var wire 8 *" imem_data_out3 [7:0] $end
$var wire 8 +" imem_data_out2 [7:0] $end
$var wire 8 ," imem_data_out1 [7:0] $end
$var wire 8 -" imem_data_out0 [7:0] $end
$var wire 32 ." imem_data_out [31:0] $end
$var wire 1 /" green $end
$var wire 1 0" dmem_write_word $end
$var wire 1 1" dmem_write_halfword $end
$var wire 16 2" dmem_dout32 [15:0] $end
$var wire 8 3" dmem_dout3 [7:0] $end
$var wire 8 4" dmem_dout2 [7:0] $end
$var wire 16 5" dmem_dout10 [15:0] $end
$var wire 8 6" dmem_dout1 [7:0] $end
$var wire 8 7" dmem_dout0 [7:0] $end
$var wire 32 8" dmem_dout [31:0] $end
$var wire 8 9" dmem_din3 [7:0] $end
$var wire 8 :" dmem_din2 [7:0] $end
$var wire 8 ;" dmem_din1 [7:0] $end
$var wire 8 <" dmem_din0 [7:0] $end
$var wire 8 =" dmem_data_out3 [7:0] $end
$var wire 8 >" dmem_data_out2 [7:0] $end
$var wire 8 ?" dmem_data_out1 [7:0] $end
$var wire 8 @" dmem_data_out0 [7:0] $end
$var wire 1 A" dmem_addr1 $end
$var wire 1 B" dmem_addr0 $end
$var wire 1 C" blue $end
$var parameter 32 D" CLK_FREQ $end
$var parameter 8 E" DMEM_INIT_FILE_PREFIX $end
$var parameter 32 F" DMEM_LEN $end
$var parameter 72 G" IMEM_INIT_FILE_PREFIX $end
$var parameter 32 H" IMEM_LEN $end
$var parameter 32 I" TICKS_PER_MICROSECOND $end
$var parameter 32 J" TICKS_PER_MILLISECOND $end
$var reg 1 K" dmem_address0 $end
$var reg 1 L" dmem_address1 $end
$var reg 8 M" dmem_data_in0 [7:0] $end
$var reg 8 N" dmem_data_in1 [7:0] $end
$var reg 8 O" dmem_data_in2 [7:0] $end
$var reg 8 P" dmem_data_in3 [7:0] $end
$var reg 32 Q" dmem_data_out [31:0] $end
$var reg 32 R" dmem_data_value [31:0] $end
$var reg 1 S" dmem_halfword $end
$var reg 1 T" dmem_unsigned $end
$var reg 1 U" dmem_word $end
$var reg 1 V" dmem_wren0 $end
$var reg 1 W" dmem_wren1 $end
$var reg 1 X" dmem_wren2 $end
$var reg 1 Y" dmem_wren3 $end
$var reg 32 Z" leds [31:0] $end
$var reg 32 [" micros [31:0] $end
$var reg 4 \" micros_counter [3:0] $end
$var reg 32 ]" millis [31:0] $end
$var reg 14 ^" millis_counter [13:0] $end
$var reg 8 _" pwm_counter [7:0] $end
$scope module dmem0 $end
$var wire 10 `" address [9:0] $end
$var wire 1 ! clk $end
$var wire 8 a" data_in [7:0] $end
$var wire 1 b" out_enable $end
$var wire 1 V" write_enable $end
$var parameter 48 c" INIT_FILE $end
$var parameter 32 d" MEM_LEN $end
$var reg 8 e" data_out [7:0] $end
$var integer 32 f" i [31:0] $end
$upscope $end
$scope module dmem1 $end
$var wire 10 g" address [9:0] $end
$var wire 1 ! clk $end
$var wire 8 h" data_in [7:0] $end
$var wire 1 i" out_enable $end
$var wire 1 W" write_enable $end
$var parameter 48 j" INIT_FILE $end
$var parameter 32 k" MEM_LEN $end
$var reg 8 l" data_out [7:0] $end
$var integer 32 m" i [31:0] $end
$upscope $end
$scope module dmem2 $end
$var wire 10 n" address [9:0] $end
$var wire 1 ! clk $end
$var wire 8 o" data_in [7:0] $end
$var wire 1 p" out_enable $end
$var wire 1 X" write_enable $end
$var parameter 48 q" INIT_FILE $end
$var parameter 32 r" MEM_LEN $end
$var reg 8 s" data_out [7:0] $end
$var integer 32 t" i [31:0] $end
$upscope $end
$scope module dmem3 $end
$var wire 10 u" address [9:0] $end
$var wire 1 ! clk $end
$var wire 8 v" data_in [7:0] $end
$var wire 1 w" out_enable $end
$var wire 1 Y" write_enable $end
$var parameter 48 x" INIT_FILE $end
$var parameter 32 y" MEM_LEN $end
$var reg 8 z" data_out [7:0] $end
$var integer 32 {" i [31:0] $end
$upscope $end
$scope module imem0 $end
$var wire 10 |" address [9:0] $end
$var wire 1 ! clk $end
$var wire 8 }" data_in [7:0] $end
$var wire 1 . out_enable $end
$var wire 1 ~" write_enable $end
$var parameter 112 !# INIT_FILE $end
$var parameter 32 "# MEM_LEN $end
$var reg 8 ## data_out [7:0] $end
$upscope $end
$scope module imem1 $end
$var wire 10 $# address [9:0] $end
$var wire 1 ! clk $end
$var wire 8 %# data_in [7:0] $end
$var wire 1 . out_enable $end
$var wire 1 &# write_enable $end
$var parameter 112 '# INIT_FILE $end
$var parameter 32 (# MEM_LEN $end
$var reg 8 )# data_out [7:0] $end
$upscope $end
$scope module imem2 $end
$var wire 10 *# address [9:0] $end
$var wire 1 ! clk $end
$var wire 8 +# data_in [7:0] $end
$var wire 1 . out_enable $end
$var wire 1 ,# write_enable $end
$var parameter 112 -# INIT_FILE $end
$var parameter 32 .# MEM_LEN $end
$var reg 8 /# data_out [7:0] $end
$upscope $end
$scope module imem3 $end
$var wire 10 0# address [9:0] $end
$var wire 1 ! clk $end
$var wire 8 1# data_in [7:0] $end
$var wire 1 . out_enable $end
$var wire 1 2# write_enable $end
$var parameter 112 3# INIT_FILE $end
$var parameter 32 4# MEM_LEN $end
$var reg 8 5# data_out [7:0] $end
$upscope $end
$upscope $end
$scope module regfile $end
$var wire 5 6# A1 [4:0] $end
$var wire 5 7# A2 [4:0] $end
$var wire 5 8# A3 [4:0] $end
$var wire 32 9# WD [31:0] $end
$var wire 1 ! clk $end
$var wire 1 ) write_en $end
$var wire 32 :# RD2 [31:0] $end
$var wire 32 ;# RD1 [31:0] $end
$var integer 32 <# i [31:0] $end
$upscope $end
$upscope $end
$enddefinitions $end
$comment Show the parameter values. $end
$dumpall
b10000000000 4#
b111001001110110001100110011001001101001011101000110010101110011011101000011001100101110011101000111100001110100 3#
b10000000000 .#
b111001001110110001100110011001001101001011101000110010101110011011101000011001000101110011101000111100001110100 -#
b10000000000 (#
b111001001110110001100110011001001101001011101000110010101110011011101000011000100101110011101000111100001110100 '#
b10000000000 "#
b111001001110110001100110011001001101001011101000110010101110011011101000011000000101110011101000111100001110100 !#
b1010 y"
b0 x"
b1010 r"
b0 q"
b1010 k"
b0 j"
b1010 d"
b0 c"
b10111011100000 J"
b1100 I"
b10000000000 H"
b11100100111011000110011001100100110100101110100011001010111001101110100 G"
b1010 F"
b0 E"
b101101110001101100000000 D"
b101 Y
b100 X
b11 W
b10 V
b1011 U
b1010 T
b1001 S
b0 R
b110 Q
b1000 P
b1 O
b1110 N
b10001 M
b1111 L
b10010 K
b10000 J
b1101 I
b1100 H
b111 G
$end
#0
$dumpvars
b100000 <#
bx ;#
bx :#
b1000000000100 9#
bx 8#
bx 7#
bx 6#
bx 5#
02#
b0 1#
b0 0#
bx /#
0,#
b0 +#
b0 *#
bx )#
0&#
b0 %#
b0 $#
bx ##
0~"
b0 }"
b0 |"
b1010 {"
bx z"
1w"
b0 v"
b0 u"
b1010 t"
bx s"
1p"
b0 o"
b0 n"
b1010 m"
bx l"
1i"
b0 h"
b0 g"
b1010 f"
bx e"
1b"
bx a"
b0 `"
b0 _"
b0 ^"
b0 ]"
b0 \"
b0 ["
b0 Z"
0Y"
0X"
0W"
0V"
xU"
xT"
xS"
b0 R"
b0 Q"
b0 P"
b0 O"
b0 N"
bx M"
0L"
0K"
0C"
0B"
0A"
bx @"
bx ?"
bx >"
bx ="
bx <"
bx ;"
bx :"
bx 9"
b0 8"
b0 7"
b0 6"
b0 5"
b0 4"
b0 3"
b0 2"
x1"
x0"
0/"
bx ."
bx -"
bx ,"
bx +"
bx *"
0)"
0("
0'"
0&"
0%"
0$"
0#"
0""
0!"
0~
1}
b1000000000000 |
bx {
0z
bx y
b1000000000000 x
bx w
bx0 v
bx u
bx0 t
bx s
bx000000000000 r
bx q
xp
xo
xn
xm
xl
xk
xj
xi
xh
xg
xf
xe
xd
b0 c
b1 b
b0 a
b10 `
1_
0^
0]
b10 \
b0 [
b0 Z
0F
bx E
xD
bx C
b1000000000100 B
b0 A
b100 @
b1000000000000 ?
b1000000000100 >
b1000000000000 =
bx <
bx ;
b100 :
b1000000000000 9
x8
bx 7
bx 6
bx 5
bx 4
bx 3
b0 2
b10 1
b1000000000000 0
0/
1.
0-
1,
bx +
bx *
0)
b10 (
b0 '
b1000000000100 &
b0 %
bx $
bx #
0"
0!
$end
#8330
b11111110110111001100000000000000 $
b11111110110111001100000000000000 w
0F
0e
1h
b1011 b
b0 *
b0 :#
b0 +
b0 ;#
00"
01"
0"
b11111110110111001101000000000000 >
b11111110110111001101000000000000 9#
0g
0i
0j
1k
0o
0f
0m
0l
0d
0n
0p
b11111111111111001100111111101100 t
b11111111111111111111111111100000 v
b11111111111111111111111111100001 s
b11111111111111111111111111101101 u
b11111110110111001100000000000000 r
1D
b100 C
b110111 E
b1 3
b1 8#
b1101 4
b1101 7#
b11001 5
b11001 6#
b100 {
0,
b11111110110111001100000000000000 :
b11111110110111001100000000000000 @
b1 |"
b1 $#
b1 *#
b1 0#
b1 `"
b1 g"
b1 n"
b1 u"
b11111110110111001101000000000000 &
b11111110110111001101000000000000 B
b11111110110111001100000010110111 #
b11111110110111001100000010110111 q
b11111110110111001100000010110111 ."
0.
0_
b1 1
b1 \
b1 2
b1 [
b1000000000100 0
b1000000000100 x
b1000000000100 |
b1000000000000 9
b1000000000000 ?
b10110111 -"
b10110111 ##
b11000000 ,"
b11000000 )#
b11011100 +"
b11011100 /#
b11111110 *"
b11111110 5#
b0 @"
b0 e"
b0 ?"
b0 l"
b0 >"
b0 s"
b0 ="
b0 z"
b1 _"
b1 ^"
b1 \"
b1 c
b1000000000100 =
b1000000000000 <
b1000000000100 ;
1!
#12495
1T"
0S"
0U"
0!
#16660
b0 M"
b0 a"
b0 >
b0 9#
b0 <"
b0 ;"
b0 :"
b0 9"
1)
b11 (
b11 `
b0 b
b11111110110111001101000000000000 ;
b0 7
b0 y
b0 6
b1011 c
b10 \"
b10 ^"
b10 _"
1!
#20825
0!
#24990
b1000000001000 &
b1000000001000 B
1,
b1000000001000 >
b1000000001000 9#
b100 :
b100 @
b1000000000100 9
b1000000000100 ?
1_
0)
1.
b10 (
b10 `
b10 1
b10 \
b0 2
b0 [
b1 b
b11 _"
b11 ^"
b11 \"
b0 c
1!
#29155
0!
#33320
1e
b101010011100 >
b101010011100 9#
0h
b11111111111111111111101010011000 $
b11111111111111111111101010011000 w
b101010011100 &
b101010011100 B
b10 |"
b10 $#
b10 *#
b10 0#
b10 `"
b10 g"
b10 n"
b10 u"
0,
0k
1p
b11111111111100001000001010011000 t
b11111111111111111111101010000000 v
b11111111111111111111101010000001 s
b11111111111111111111101010011000 u
b10101001100000001000000000000000 r
0D
b0 C
b10011 E
b11000 4
b11000 7#
b1 5
b1 6#
b0 {
b11111111111111111111101010011000 :
b11111111111111111111101010011000 @
b1000000001000 0
b1000000001000 x
b1000000001000 |
0.
0_
b1 1
b1 \
b1 2
b1 [
b1000 b
b10101001100000001000000010010011 #
b10101001100000001000000010010011 q
b10101001100000001000000010010011 ."
b1000000001000 ;
b1000000000100 <
b1000000001000 =
b1 c
b100 \"
b100 ^"
b100 _"
b10101001 *"
b10101001 5#
b10000000 +"
b10000000 /#
b10000000 ,"
b10000000 )#
b10010011 -"
b10010011 ##
1!
#37485
0T"
0!
#41650
b11111111111111111111101010011000 >
b11111111111111111111101010011000 9#
b11111111111111111111101010011000 &
b11111111111111111111101010011000 B
b0 9
b0 ?
b10 Z
b10 2
b10 [
b111 b
b101 _"
b101 ^"
b101 \"
b1000 c
b101010011100 ;
1!
#45815
0!
#49980
b100 &
b100 B
b100 :
b100 @
b10 1
b10 \
1)
b0 (
b0 `
b0 b
b11111111111111111111101010011000 ;
b111 c
b110 \"
b110 ^"
b110 _"
1!
#54145
0!
#58310
b1000000001100 &
b1000000001100 B
1,
b1000000001000 9
b1000000001000 ?
b11111111111111111111101010011000 +
b11111111111111111111101010011000 ;#
1_
0)
1.
b10 (
b10 `
b0 Z
b0 2
b0 [
b1 b
b1000000001100 >
b1000000001100 9#
b111 _"
b111 ^"
b111 \"
b0 c
b100 ;
1!
#62475
0!
#66640
b1000000001100 >
b1000000001100 9#
b100 $
b100 w
11"
b1000000001100 &
b1000000001100 B
b11 |"
b11 $#
b11 *#
b11 0#
b11 `"
b11 g"
b11 n"
b11 u"
0,
b1101000000000100 t
b10 v
b10 s
b100 u
b10000001101000000000000 r
b101 C
b10 3
b10 8#
b100 4
b100 7#
b101 {
b100 :
b100 @
b1000000001100 0
b1000000001100 x
b1000000001100 |
0.
0_
b1 1
b1 \
b1 2
b1 [
b1000 b
b10000001101000100010011 #
b10000001101000100010011 q
b10000001101000100010011 ."
b1000000001100 ;
b11111111111111111111101010011000 6
b1000000001000 <
b1000000001100 =
b1 c
b1000 \"
b1000 ^"
b1000 _"
b0 *"
b0 5#
b1000000 +"
b1000000 /#
b11010001 ,"
b11010001 )#
b10011 -"
b10011 ##
1!
#70805
1T"
1S"
0!
#74970
b1111111111111111111110101001 >
b1111111111111111111110101001 9#
b1111111111111111111110101001 &
b1111111111111111111110101001 B
b1001 '
b1001 A
b1001 a
b11111111111111111111101010011000 9
b11111111111111111111101010011000 ?
b10 Z
b10 2
b10 [
b111 b
b1001 _"
b1001 ^"
b1001 \"
b1000 c
1!
#79135
0!
#83300
b10 1
b10 \
1)
b0 (
b0 `
b0 b
b1111111111111111111110101001 ;
b111 c
b1010 \"
b1010 ^"
b1010 _"
1!
#87465
0!
#91630
b1000000010000 >
b1000000010000 9#
b1000000010000 &
b1000000010000 B
1,
b0 '
b0 A
b0 a
b1000000001100 9
b1000000001100 ?
1_
0)
1.
b10 (
b10 `
b0 Z
b0 2
b0 [
b1 b
b1011 _"
b1011 ^"
b1011 \"
b0 c
1!
#95795
0!
#99960
b1010000010000 >
b1010000010000 9#
b1010000010000 &
b1010000010000 B
b10000000100 :
b10000000100 @
b10000000100 $
b10000000100 w
b100 |"
b100 $#
b100 *#
b100 0#
b100 `"
b100 g"
b100 n"
b100 u"
0,
b1101010000000100 t
b110000000010 v
b10000000011 s
b10000000100 u
b1000000010000001101000000000000 r
1D
b11 3
b11 8#
b1000000010000 0
b1000000010000 x
b1000000010000 |
0.
0_
b1 1
b1 \
b1 2
b1 [
b1000 b
b1000000010000001101000110010011 #
b1000000010000001101000110010011 q
b1000000010000001101000110010011 ."
b1000000010000 ;
b1000000001100 <
b1000000010000 =
b1 c
b1 ["
b0 \"
b1100 ^"
b1100 _"
b1000000 *"
b1000000 5#
b10010011 -"
b10010011 ##
1!
#104125
0!
#108290
b11111111111111111111111110101001 >
b11111111111111111111111110101001 9#
b11111111111111111111111110101001 &
b11111111111111111111111110101001 B
b1010 '
b1010 A
b1010 a
b11111111111111111111101010011000 9
b11111111111111111111101010011000 ?
b10 Z
b10 2
b10 [
b111 b
b1101 _"
b1101 ^"
b1 \"
b1000 c
b1010000010000 ;
1!
#112455
0!
#116620
b100 :
b100 @
b10 1
b10 \
1)
b0 (
b0 `
b0 b
b11111111111111111111111110101001 ;
b111 c
b10 \"
b1110 ^"
b1110 _"
1!
#120785
0!
#124950
b1000000010100 >
b1000000010100 9#
b1000000010100 &
b1000000010100 B
1,
b0 '
b0 A
b0 a
b1000000010000 9
b1000000010000 ?
1_
0)
1.
b10 (
b10 `
b0 Z
b0 2
b0 [
b1 b
b1111 _"
b1111 ^"
b11 \"
b0 c
1!
#129115
0!
#133280
b1000000001111 >
b1000000001111 9#
b11111111111111111111111111111111 $
b11111111111111111111111111111111 w
b11111111111111111111111110101001 +
b11111111111111111111111110101001 ;#
01"
b1000000001111 &
b1000000001111 B
b101 |"
b101 $#
b101 *#
b101 0#
b101 `"
b101 g"
b101 n"
b101 u"
0,
b11111111111100011100111111111110 t
b11111111111111111111011111100100 v
b11111111111111111111111111100100 s
b11111111111111111111111111111111 u
b11111111111100011100000000000000 r
b100 C
b100 3
b100 8#
b11111 4
b11111 7#
b11 5
b11 6#
b100 {
b11111111111111111111111111111111 :
b11111111111111111111111111111111 @
b1000000010100 0
b1000000010100 x
b1000000010100 |
0.
0_
b1 1
b1 \
b1 2
b1 [
b1000 b
b11111111111100011100001000010011 #
b11111111111100011100001000010011 q
b11111111111100011100001000010011 ."
b1000000010100 ;
b1000000010000 <
b1000000010100 =
b1 c
b100 \"
b10000 ^"
b10000 _"
b11111111 *"
b11111111 5#
b11110001 +"
b11110001 /#
b11000010 ,"
b11000010 )#
b10011 -"
b10011 ##
1!
#137445
0S"
0!
#141610
b1010110 >
b1010110 9#
b1010110 &
b1010110 B
b110 '
b110 A
b110 a
b11111111111111111111111110101001 9
b11111111111111111111111110101001 ?
b10 Z
b10 2
b10 [
b111 b
b10001 _"
b10001 ^"
b101 \"
b1000 c
b11111111111111111111111110101001 6
b1000000001111 ;
1!
#145775
0!
#149940
b11111111111111111111111110101101 &
b11111111111111111111111110101101 B
b100 :
b100 @
b10 1
b10 \
1)
b0 (
b0 `
b0 b
b1010110 ;
b111 c
b110 \"
b10010 ^"
b10010 _"
1!
#154105
0!
#158270
b1000000011000 &
b1000000011000 B
1,
b0 '
b0 A
b0 a
b1000000010100 9
b1000000010100 ?
1_
0)
1.
b10 (
b10 `
b0 Z
b0 2
b0 [
b1 b
b1000000011000 >
b1000000011000 9#
b10011 _"
b10011 ^"
b111 \"
b0 c
b11111111111111111111111110101101 ;
1!
#162435
0!
#166600
b1000000010110 >
b1000000010110 9#
b10 $
b10 w
b1111111111111111111110101001 *
b1111111111111111111110101001 :#
b0 +
b0 ;#
b1000000010110 &
b1000000010110 B
b110 |"
b110 $#
b110 *#
b110 0#
b110 `"
b110 g"
b110 n"
b110 u"
0,
b10 t
b100000000100 v
b101 s
b10 u
b1000000000000000000000 r
0D
b0 C
b101 3
b101 8#
b10 4
b10 7#
b0 5
b0 6#
b0 {
b10 :
b10 @
b1000000011000 0
b1000000011000 x
b1000000011000 |
0.
0_
b1 1
b1 \
b1 2
b1 [
b1000 b
b1000000000001010010011 #
b1000000000001010010011 q
b1000000000001010010011 ."
b1000000011000 ;
b1000000010100 <
b1000000011000 =
b1 c
b1000 \"
b10100 ^"
b10100 _"
b0 *"
b0 5#
b100000 +"
b100000 /#
b10 ,"
b10 )#
b10010011 -"
b10010011 ##
1!
#170765
0T"
0!
#174930
b10 >
b10 9#
b10 &
b10 B
b0 9
b0 ?
b10101001 M"
b10101001 a"
b10 Z
b10 2
b10 [
b111 b
b10101001 <"
b11111111 ;"
b11111111 :"
b1111 9"
b10101 _"
b10101 ^"
b1001 \"
b1000 c
b1111111111111111111110101001 7
b1111111111111111111110101001 y
b0 6
b1000000010110 ;
1!
#179095
0!
#183260
b100 &
b100 B
b100 :
b100 @
b10 1
b10 \
1)
b0 (
b0 `
b0 b
b10 ;
b111 c
b1010 \"
b10110 ^"
b10110 _"
1!
#187425
0!
#191590
b1000000011100 &
b1000000011100 B
1,
b1000000011000 9
b1000000011000 ?
1_
0)
1.
b10 (
b10 `
b0 Z
b0 2
b0 [
b1 b
b1000000011100 >
b1000000011100 9#
b10111 _"
b10111 ^"
b1011 \"
b0 c
b100 ;
1!
#195755
0!
#199920
0e
b1000000011100 >
b1000000011100 9#
b100 $
b100 w
b1010110 *
b1010110 :#
b10 +
b10 ;#
b1000000011100 &
b1000000011100 B
b111 |"
b111 $#
b111 *#
b111 0#
b111 `"
b111 g"
b111 n"
b111 u"
0,
0p
b101000000000000100 t
b110 v
b110 s
b100 u
b10000101000000000000000 r
b110011 E
b110 3
b110 8#
b100 4
b100 7#
b101 5
b101 6#
b100 :
b100 @
b1000000011100 0
b1000000011100 x
b1000000011100 |
0.
0_
b1 1
b1 \
b1 2
b1 [
b110 b
b10000101000001100110011 #
b10000101000001100110011 q
b10000101000001100110011 ."
b1000000011100 ;
b1000000011000 <
b1000000011100 =
b1 c
b10 ["
b0 \"
b11000 ^"
b11000 _"
b1000010 +"
b1000010 /#
b10000011 ,"
b10000011 )#
b110011 -"
b110011 ##
1!
#204085
0!
#208250
b1011000 >
b1011000 9#
b1011000 &
b1011000 B
b1010110 :
b1010110 @
b10 9
b10 ?
b1010110 M"
b1010110 a"
b10 Z
b0 1
b0 \
b10 2
b10 [
b111 b
b1010110 <"
b0 ;"
b0 :"
b0 9"
b11001 _"
b11001 ^"
b1 \"
b110 c
b1010110 7
b1010110 y
b10 6
1!
#212415
0!
#216580
b110 &
b110 B
b100 :
b100 @
b10 1
b10 \
1)
b0 (
b0 `
b0 b
b1011000 ;
b111 c
b10 \"
b11010 ^"
b11010 _"
1!
#220745
0!
#224910
b1000000100000 &
b1000000100000 B
1,
b1000000011100 9
b1000000011100 ?
1_
0)
1.
b10 (
b10 `
b0 Z
b0 2
b0 [
b1 b
b1000000100000 >
b1000000100000 9#
b11011 _"
b11011 ^"
b11 \"
b0 c
b110 ;
1!
#229075
0!
#233240
b1011000 +
b1011000 ;#
b1000 |"
b1000 $#
b1000 *#
b1000 0#
b1000 `"
b1000 g"
b1000 n"
b1000 u"
0,
b110000010000000100 t
b110000000110 v
b10000000111 s
b10000000100 u
b1000000010000110000000000000000 r
1D
b111 3
b111 8#
b110 5
b110 6#
b1000000100000 0
b1000000100000 x
b1000000100000 |
0.
0_
b1 1
b1 \
b1 2
b1 [
b110 b
b1000000010000110000001110110011 #
b1000000010000110000001110110011 q
b1000000010000110000001110110011 ."
b1000000100000 ;
b1000000011100 <
b1000000100000 =
b1 c
b100 \"
b11100 ^"
b11100 _"
b1000000 *"
b1000000 5#
b1000011 +"
b1000011 /#
b11 ,"
b11 )#
b10110011 -"
b10110011 ##
1!
#237405
0!
#241570
b10 >
b10 9#
b10 &
b10 B
b1 '
b1 A
b1 a
b1010110 :
b1010110 @
b1011000 9
b1011000 ?
b10 Z
b0 1
b0 \
b10 2
b10 [
b111 b
b11101 _"
b11101 ^"
b101 \"
b110 c
b1011000 6
1!
#245735
0!
#249900
b1010100 &
b1010100 B
b100 :
b100 @
b10 1
b10 \
1)
b0 (
b0 `
b0 b
b10 ;
b111 c
b110 \"
b11110 ^"
b11110 _"
1!
#254065
0!
#258230
b1000000100100 &
b1000000100100 B
1,
b0 '
b0 A
b0 a
b1000000100000 9
b1000000100000 ?
1_
0)
1.
b10 (
b10 `
b0 Z
b0 2
b0 [
b1 b
b1000000100100 >
b1000000100100 9#
b11111 _"
b11111 ^"
b111 \"
b0 c
b1010100 ;
1!
#262395
0!
#266560
b10 *
b10 :#
b1010110 +
b1010110 ;#
11"
b1001 |"
b1001 $#
b1001 *#
b1001 0#
b1001 `"
b1001 g"
b1001 n"
b1001 u"
0,
b100001100000000100 t
b1000 v
b1000 s
b101 u
b10100100001000000000000 r
0D
b1 C
b1000 3
b1000 8#
b101 4
b101 7#
b100 5
b100 6#
b1 {
b1000000100100 0
b1000000100100 x
b1000000100100 |
0.
0_
b1 1
b1 \
b1 2
b1 [
b110 b
b10100100001010000110011 #
b10100100001010000110011 q
b10100100001010000110011 ."
b1000000100100 ;
b1000000100000 <
b1000000100100 =
b1 c
b1000 \"
b100000 ^"
b100000 _"
b0 *"
b0 5#
b1010010 +"
b1010010 /#
b10100 ,"
b10100 )#
b110011 -"
b110011 ##
1!
#270725
1S"
0!
#274890
b101011000 >
b101011000 9#
b101011000 &
b101011000 B
b1000 '
b1000 A
b1000 a
b10 :
b10 @
b1010110 9
b1010110 ?
b10 M"
b10 a"
b10 Z
b0 1
b0 \
b10 2
b10 [
b111 b
b10 <"
b100001 _"
b100001 ^"
b1001 \"
b110 c
b10 7
b10 y
b1010110 6
1!
#279055
0!
#283220
b10101100000 &
b10101100000 B
b100 :
b100 @
b10 1
b10 \
1)
b0 (
b0 `
b0 b
b101011000 ;
b111 c
b1010 \"
b100010 ^"
b100010 _"
1!
#287385
0!
#291550
b1000000101000 &
b1000000101000 B
1,
b0 '
b0 A
b0 a
b1000000100100 9
b1000000100100 ?
1_
0)
1.
b10 (
b10 `
b0 Z
b0 2
b0 [
b1 b
b1000000101000 >
b1000000101000 9#
b100011 _"
b100011 ^"
b1011 \"
b0 c
b10101100000 ;
1!
#295715
0!
#299880
b1000000101011 >
b1000000101011 9#
b1000000101011 &
b1000000101011 B
b111 :
b111 @
b111 $
b111 w
1e
b101011000 +
b101011000 ;#
10"
01"
b1010 |"
b1010 $#
b1010 *#
b1010 0#
b1010 `"
b1010 g"
b1010 n"
b1010 u"
0,
1p
b1000110100000000110 t
b100000001000 v
b1001 s
b111 u
b11101000110000000000000 r
b110 C
b10011 E
b1001 3
b1001 8#
b111 4
b111 7#
b1000 5
b1000 6#
b110 {
b1000000101000 0
b1000000101000 x
b1000000101000 |
0.
0_
b1 1
b1 \
b1 2
b1 [
b1000 b
b11101000110010010010011 #
b11101000110010010010011 q
b11101000110010010010011 ."
b1000000101000 ;
b1000000100100 <
b1000000101000 =
b1 c
b11 ["
b0 \"
b100100 ^"
b100100 _"
b1110100 +"
b1110100 /#
b1100100 ,"
b1100100 )#
b10010011 -"
b10010011 ##
1!
#304045
1T"
0S"
1U"
0!
#308210
b101011111 >
b101011111 9#
b101011111 &
b101011111 B
b11 '
b11 A
b11 a
b101011000 9
b101011000 ?
b10 Z
b10 2
b10 [
b111 b
bx @"
bx e"
bx ?"
bx l"
bx >"
bx s"
bx ="
bx z"
b100101 _"
b100101 ^"
b1 \"
b1000 c
b101011000 6
b1000000101011 ;
1!
#312375
0!
